module uploader

go 1.17

require (
	github.com/go-telegram-bot-api/telegram-bot-api/v5 v5.5.1
	github.com/himidori/golang-vk-api v0.0.0-20210404104913-eff438684eb7
	github.com/joho/godotenv v1.4.0
	github.com/lib/pq v1.10.6
	gorm.io/driver/postgres v1.3.8
	gorm.io/gorm v1.23.8
)

require (
	github.com/jackc/chunkreader/v2 v2.0.1 // indirect
	github.com/jackc/pgconn v1.12.1 // indirect
	github.com/jackc/pgio v1.0.0 // indirect
	github.com/jackc/pgpassfile v1.0.0 // indirect
	github.com/jackc/pgproto3/v2 v2.3.0 // indirect
	github.com/jackc/pgservicefile v0.0.0-20200714003250-2b9c44734f2b // indirect
	github.com/jackc/pgtype v1.11.0 // indirect
	github.com/jackc/pgx/v4 v4.16.1 // indirect
	github.com/jinzhu/inflection v1.0.0 // indirect
	github.com/jinzhu/now v1.1.5 // indirect
	github.com/julienschmidt/httprouter v1.3.0 // indirect
	github.com/theTardigrade/golang-hash v1.4.2 // indirect
	go.uber.org/atomic v1.9.0 // indirect
	go.uber.org/multierr v1.8.0 // indirect
	go.uber.org/zap v1.21.0 // indirect
	golang.org/x/crypto v0.0.0-20220829220503-c86fa9a7ed90 // indirect
	golang.org/x/text v0.3.7 // indirect
)
